{
  "config":
  {
    "hw_platform": ["MTP", "QRD"],
    "soc_id": ["415", "439", "457", "530"]
  },
  "alsps":{
    "owner": "sns_alsps",
    ".als":{
      "owner": "sns_alsps",
      ".config":{
        "owner": "sns_alsps",
        "is_dri":{ "type": "int", "ver": "0",
          "data": "0"
        },
        "hw_id":{ "type": "int", "ver": "0",
          "data": "0"
        },
        "res_idx":{ "type": "int", "ver": "0",
          "data": "0"
       },
        "sync_stream":{ "type": "int", "ver": "0",
          "data": "0"
        }
      }
    },
    ".prox":{
      "owner": "sns_alsps",
      ".config":{
        "owner": "sns_alsps",
        "is_dri":{ "type": "int", "ver": "0",
          "data": "1"
        },
        "hw_id":{ "type": "int", "ver": "0",
          "data": "0"
        },
        "res_idx":{ "type": "int", "ver": "0",
          "data": "0"
        },
        "sync_stream":{ "type": "int", "ver": "0",
          "data": "0"
        }
      }
    }
  },
  "alsps_platform":{
    "owner": "sns_alsps",
    ".config":{
      "owner": "sns_alsps",
      "bus_type":{ "type": "int", "ver": "0",
        "data": "0"
      },
      "bus_instance":{ "type": "int", "ver": "0",
        "data": "2"
      },
      "slave_config":{ "type": "int", "ver": "0",
        "data": "70"
      },
      "min_bus_speed_khz":{ "type": "int", "ver": "0",
        "data": "400"
      },
      "max_bus_speed_khz":{ "type": "int", "ver": "0",
        "data": "400"
      },
      "reg_addr_type":{ "type": "int", "ver": "0",
        "data": "0"
      },
      "dri_irq_num":{ "type": "int", "ver": "0",
        "data": "14"
      },
      "irq_pull_type":{ "type": "int", "ver": "1",
        "data": "0"
      },
      "irq_is_chip_pin":{ "type": "int", "ver": "0",
        "data": "1"
      },
      "irq_drive_strength":{ "type": "int", "ver": "0",
        "data": "0"
      },
      "irq_trigger_type":{ "type": "int", "ver": "0",
        "data": "1"
      },
      "num_rail":{ "type": "int", "ver": "0",
        "data": "2"
      },
      "rail_on_state":{ "type": "int", "ver": "0",
        "data": "2"
      },
      "vdd_rail":{ "type": "str", "ver": "0",
        "data": "/pmic/client/sensor_vdd"
      },
      "vddio_rail":{ "type": "str", "ver": "0",
        "data": "/pmic/client/sensor_vddio"
      },
      "rigid_body_type":{ "type": "int", "ver": "0",
      "data": "0"
      }
    },
    ".als":{
      "owner": "sns_alsps",
      ".fac_cal":{
        "owner": "sns_alsps",
        "scale":{ "type": "flt", "ver": "0",
          "data": "1000.0"
        },
        "bias":{ "type": "flt", "ver": "0",
          "data": "5000.0"
        }
      }
    },
    ".prox":{
      "owner": "sns_alsps",
      ".fac_cal":{
        "owner": "sns_alsps",
        "offset":{ "type": "flt", "ver": "0",
          "data": "0.0"
        },
        "3cm_threshold":{ "type": "flt", "ver": "0",
          "data": "160.0"
        },
        "delta":{ "type": "flt", "ver": "0",
          "data": "110.0"
        },
        "cali_goal":{ "type": "flt", "ver": "0",
          "data": "50.0"
        },
        "cali_up_thrd":{ "type": "flt", "ver": "0",
          "data": "30000.0"
        },
        "dynamic_cali_offset":{ "type": "flt", "ver": "1",
          "data": "0.0"
        },
        "cali_para":{ "type": "flt", "ver": "0",
          "data": "1.0"
        },
        "cali_flag":{ "type": "flt", "ver": "0",
          "data": "0.0"
        }
      }
    },
    ".cct":{
      "owner": "sns_alsps",
      ".fac_cal":{
        "owner": "sns_alsps",
        "R_cali":{ "type": "flt", "ver": "0",
          "data": "1000.0"
        },
        "G_cali":{ "type": "flt", "ver": "0",
          "data": "1000.0"
        },
        "B_cali":{ "type": "flt", "ver": "0",
          "data": "1000.0"
        },
        "C_cali":{ "type": "flt", "ver": "0",
          "data": "1000.0"
        },
        "W_cali":{ "type": "flt", "ver": "0",
          "data": "1000.0"
        },
        "ch6":{ "type": "flt", "ver": "0",
          "data": "1000.0"
        }
      }
    }
  }
}
